{
  "Narracan": {
    "la": 0,
    "lc_atl": 3,
    "lc_btl": 29
  },
  "Gembrook": {
    "la": 0,
    "lc_atl": 3,
    "lc_btl": 29
  },
  "Mornington": {
    "la": 0,
    "lc_atl": 3,
    "lc_btl": 29
  },
  "Gippsland South": {
    "la": 0,
    "lc_atl": 3,
    "lc_btl": 29
  },
  "Hastings": {
    "la": 0,
    "lc_atl": 3,
    "lc_btl": 29
  },
  "Nepean": {
    "la": 0,
    "lc_atl": 3,
    "lc_btl": 29
  },
  "Bass": {
    "la": 20,
    "lc_atl": 3,
    "lc_btl": 29
  },
  "Gippsland East": {
    "la": 0,
    "lc_atl": 3,
    "lc_btl": 29
  },
  "Evelyn": {
    "la": 2,
    "lc_atl": 3,
    "lc_btl": 29
  },
  "Morwell": {
    "la": 0,
    "lc_atl": 3,
    "lc_btl": 29
  },
  "Monbulk": {
    "la": 0,
    "lc_atl": 3,
    "lc_btl": 29
  }
}