{
	"type":"object",
	"id": "podproxy",
	"required":["district","type"],
	"properties":{
		"district": {
			"type":"string",
			"id": "district"
		},
		"type": {
			"type":"string",
			"id": "type",
			"enum": ["pod"]
		}
	}
}